11:45:47 492	瑞芯微开发工具 v2.5.4.0 start run
11:49:41 503	Layer<3-5>:测试设备开始
11:49:41 520	Layer<3-5>:测试设备成功
11:49:46 533	<LAYER 3-5> ERROR:ReadCapability-->RKU_ReadCapability failed,err(-8)
11:49:46 546	Layer<3-5>:校验芯片开始
11:49:51 554	Error:RKU_Write-->WriteFile failed,bRet=1,err=0,size=31,write=0
11:49:53 568	INFO:RKU_ResetPipe-->DeviceIoControl OK
11:49:53 580	Layer<3-5>:校验芯片成功
11:49:53 590	Layer<3-5>:获取FlashInfo开始
11:49:53 597	<LAYER 3-5> INFO:FlashInfo: 00 00 E9 00 00 04 04 00 28 00 01
11:49:53 603	<LAYER 3-5> INFO:GetFlashInfo-->Emmc storage.
11:49:53 612	Layer<3-5>:获取FlashInfo成功
11:49:53 622	Layer<3-5>:准备IDB开始
11:49:53 628	<LAYER 3-5> INFO:CS(1)		(7456MB)		(SAMSUNG)
11:49:53 648	Layer<3-5>:准备IDB成功
11:49:53 659	Layer<3-5>:下载IDB开始
11:49:54 839	Layer<3-5>:下载IDB成功
11:49:54 850	Layer<3-5>:重启设备开始
11:49:55 860	Layer<3-5>:重启设备成功
11:49:55 870	Layer<3-5>:等待Loader开始
11:49:56 387	Layer<3-5>:等待Loader成功
11:49:56 398	Layer<3-5>:测试设备开始
11:49:56 409	Layer<3-5>:测试设备成功
11:49:56 419	Layer<3-5>:下载固件开始
11:49:56 430	<LAYER 3-5> INFO:FlashInfo: 00 00 E9 00 00 04 04 00 28 00 01
11:49:56 437	<LAYER 3-5> INFO:GetFlashInfo-->Emmc storage.
11:49:56 443	<LAYER 3-5> INFO:Start download image,total=3797008600,band=64,DirectLBA=0,First4Access=0,Gpt=0
11:49:56 507	<LAYER 3-5> INFO:Start to download trust,offset=0x4000,size=4194304
11:49:56 691	<LAYER 3-5> INFO:Start to download uboot,offset=0x2000,size=4194304
11:49:57 762	<LAYER 3-5> INFO:Start to download misc,offset=0x6000,size=49152
11:49:57 786	<LAYER 3-5> INFO:Start to download resource,offset=0x8000,size=755200
11:49:57 827	<LAYER 3-5> INFO:Start to download kernel,offset=0x10000,size=19357716
11:49:58 636	<LAYER 3-5> INFO:Start to download boot,offset=0x20000,size=1545880
11:49:58 727	<LAYER 3-5> INFO:Start to download recovery,offset=0x30000,size=8808684
11:49:59 182	<LAYER 3-5> INFO:Start to download system,offset=0x18a000,size=2684354560
11:50:13 774	Error:RKU_Write-->WriteFile failed,bRet=0,err=1167,size=1048576,write=0
11:50:35 837	INFO:RKU_ResetPipe-->DeviceIoControl OK
11:50:35 882	Error:RKU_Write-->WriteFile failed,bRet=0,err=31,size=31,write=0
11:50:35 887	<LAYER 3-5> ERROR:RKA_SparseFile_Download-->RKU_WriteLBA failed,RetCode(-3),chunk=6
11:50:35 893	<LAYER 3-5> ERROR:DownloadImage-->RKA_File_Download failed(system)
11:50:35 915	Error:Layer<3-5>:下载固件失败
11:51:57 880	Layer<3-5>:测试设备开始
11:51:57 887	Error:RKU_Write-->WriteFile failed,bRet=0,err=31,size=31,write=0
11:51:59 895	INFO:RKU_ResetPipe-->DeviceIoControl OK
11:51:59 901	Error:RKU_Write-->WriteFile failed,bRet=0,err=31,size=31,write=0
11:51:59 907	<LAYER 3-5> ERROR:TestDevice-->RKU_TestDeviceReady failed,RetCode(-3),path=\\?\USB#VID_2207&PID_330C#5&3B0D2CFF&0&5#{a5dcbf10-6530-11d2-901f-00c04fb951ed}
11:52:00 918	Error:RKU_Write-->WriteFile failed,bRet=0,err=31,size=31,write=0
11:52:02 928	INFO:RKU_ResetPipe-->DeviceIoControl OK
11:52:02 935	Error:RKU_Write-->WriteFile failed,bRet=0,err=31,size=31,write=0
11:52:02 942	<LAYER 3-5> ERROR:TestDevice-->RKU_TestDeviceReady failed,RetCode(-3),path=\\?\USB#VID_2207&PID_330C#5&3B0D2CFF&0&5#{a5dcbf10-6530-11d2-901f-00c04fb951ed}
11:52:03 952	Error:RKU_Write-->WriteFile failed,bRet=0,err=31,size=31,write=0
11:52:05 963	INFO:RKU_ResetPipe-->DeviceIoControl OK
11:52:05 970	Error:RKU_Write-->WriteFile failed,bRet=0,err=31,size=31,write=0
11:52:05 977	<LAYER 3-5> ERROR:TestDevice-->RKU_TestDeviceReady failed,RetCode(-3),path=\\?\USB#VID_2207&PID_330C#5&3B0D2CFF&0&5#{a5dcbf10-6530-11d2-901f-00c04fb951ed}
11:52:06 988	Error:Layer<3-5>:测试设备失败
11:52:41 840	Layer<3-5>:测试设备开始
11:52:41 848	Error:RKU_Write-->WriteFile failed,bRet=0,err=31,size=31,write=0
11:52:43 858	INFO:RKU_ResetPipe-->DeviceIoControl OK
11:52:43 864	Error:RKU_Write-->WriteFile failed,bRet=0,err=31,size=31,write=0
11:52:43 878	<LAYER 3-5> ERROR:TestDevice-->RKU_TestDeviceReady failed,RetCode(-3),path=\\?\USB#VID_2207&PID_330C#5&3B0D2CFF&0&5#{a5dcbf10-6530-11d2-901f-00c04fb951ed}
11:52:44 889	Error:RKU_Write-->WriteFile failed,bRet=0,err=31,size=31,write=0
11:52:46 901	INFO:RKU_ResetPipe-->DeviceIoControl OK
11:52:47 850	Error:RKU_Write-->WriteFile failed,bRet=0,err=31,size=31,write=0
11:52:47 856	<LAYER 3-5> ERROR:TestDevice-->RKU_TestDeviceReady failed,RetCode(-3),path=\\?\USB#VID_2207&PID_330C#5&3B0D2CFF&0&5#{a5dcbf10-6530-11d2-901f-00c04fb951ed}
11:52:48 862	Error:RKU_Write-->WriteFile failed,bRet=0,err=31,size=31,write=0
11:52:50 880	INFO:RKU_ResetPipe-->DeviceIoControl OK
11:52:50 887	Error:RKU_Write-->WriteFile failed,bRet=0,err=31,size=31,write=0
11:52:50 893	<LAYER 3-5> ERROR:TestDevice-->RKU_TestDeviceReady failed,RetCode(-3),path=\\?\USB#VID_2207&PID_330C#5&3B0D2CFF&0&5#{a5dcbf10-6530-11d2-901f-00c04fb951ed}
11:52:51 902	Error:Layer<3-5>:测试设备失败
11:53:23 295	Layer<3-5>:测试设备开始
11:53:23 320	Layer<3-5>:测试设备成功
11:53:23 326	<LAYER 3-5> ERROR:ReadCapability-->RKU_ReadCapability failed,err(-8)
11:53:23 334	Layer<3-5>:校验芯片开始
11:53:23 343	Layer<3-5>:校验芯片成功
11:53:23 363	Layer<3-5>:获取FlashInfo开始
11:53:23 370	<LAYER 3-5> INFO:FlashInfo: 00 00 E9 00 00 04 04 00 28 00 01
11:53:23 376	<LAYER 3-5> INFO:GetFlashInfo-->Emmc storage.
11:53:23 386	Layer<3-5>:获取FlashInfo成功
11:53:23 395	Layer<3-5>:准备IDB开始
11:53:23 410	<LAYER 3-5> INFO:CS(1)		(7456MB)		(SAMSUNG)
11:53:23 425	Layer<3-5>:准备IDB成功
11:53:23 436	Layer<3-5>:下载IDB开始
11:53:23 607	Layer<3-5>:下载IDB成功
11:53:23 620	Layer<3-5>:重启设备开始
11:53:24 634	Layer<3-5>:重启设备成功
11:53:24 650	Layer<3-5>:等待Loader开始
11:53:25 111	Layer<3-5>:等待Loader成功
11:53:25 119	Layer<3-5>:测试设备开始
11:53:25 128	Layer<3-5>:测试设备成功
11:53:25 135	Layer<3-5>:下载固件开始
11:53:25 149	<LAYER 3-5> INFO:FlashInfo: 00 00 E9 00 00 04 04 00 28 00 01
11:53:25 155	<LAYER 3-5> INFO:GetFlashInfo-->Emmc storage.
11:53:25 161	<LAYER 3-5> INFO:Start download image,total=3797008600,band=64,DirectLBA=0,First4Access=0,Gpt=0
11:53:25 211	<LAYER 3-5> INFO:Start to download trust,offset=0x4000,size=4194304
11:53:25 389	<LAYER 3-5> INFO:Start to download uboot,offset=0x2000,size=4194304
11:53:25 591	<LAYER 3-5> INFO:Start to download misc,offset=0x6000,size=49152
11:53:25 606	<LAYER 3-5> INFO:Start to download resource,offset=0x8000,size=755200
11:53:25 643	<LAYER 3-5> INFO:Start to download kernel,offset=0x10000,size=19357716
11:53:26 511	<LAYER 3-5> INFO:Start to download boot,offset=0x20000,size=1545880
11:53:26 596	<LAYER 3-5> INFO:Start to download recovery,offset=0x30000,size=8808684
11:53:26 953	<LAYER 3-5> INFO:Start to download system,offset=0x18a000,size=2684354560
11:54:12 419	<LAYER 3-5> INFO:Start to download vendor,offset=0x692000,size=536870912
11:54:24 670	<LAYER 3-5> INFO:Start to download oem,offset=0x794000,size=536870912
11:54:24 836	Layer<3-5>:下载固件成功
11:54:24 843	Layer<3-5>:重启设备开始
11:54:25 855	Layer<3-5>:重启设备成功
14:05:24 248	Layer<3-5>:测试设备开始
14:05:25 029	Layer<3-5>:测试设备成功
14:05:30 389	<LAYER 3-5> ERROR:ReadCapability-->RKU_ReadCapability failed,err(-8)
14:05:30 769	Layer<3-5>:校验芯片开始
14:05:36 129	Error:RKU_Write-->WriteFile failed,bRet=1,err=0,size=31,write=0
14:05:38 580	INFO:RKU_ResetPipe-->DeviceIoControl OK
14:05:38 956	Layer<3-5>:校验芯片成功
14:05:39 318	Layer<3-5>:获取FlashInfo开始
14:05:39 678	<LAYER 3-5> INFO:FlashInfo: 00 00 E9 00 00 04 04 00 28 00 01
14:05:40 042	<LAYER 3-5> INFO:GetFlashInfo-->Emmc storage.
14:05:40 409	Layer<3-5>:获取FlashInfo成功
14:05:40 785	Layer<3-5>:准备IDB开始
14:05:41 137	<LAYER 3-5> INFO:CS(1)		(7456MB)		(SAMSUNG)
14:05:41 512	Layer<3-5>:准备IDB成功
14:05:41 874	Layer<3-5>:下载IDB开始
14:05:43 424	Layer<3-5>:下载IDB成功
14:05:43 784	Layer<3-5>:重启设备开始
14:05:45 153	Layer<3-5>:重启设备成功
14:05:45 516	Layer<3-5>:等待Loader开始
14:05:46 396	Layer<3-5>:等待Loader成功
14:05:46 797	Layer<3-5>:测试设备开始
14:05:47 162	Layer<3-5>:测试设备成功
14:05:47 522	Layer<3-5>:下载固件开始
14:05:47 885	<LAYER 3-5> INFO:FlashInfo: 00 00 E9 00 00 04 04 00 28 00 01
14:05:48 249	<LAYER 3-5> INFO:GetFlashInfo-->Emmc storage.
14:05:48 613	<LAYER 3-5> INFO:Start download image,total=3797008600,band=64,DirectLBA=0,First4Access=0,Gpt=0
14:05:49 051	<LAYER 3-5> INFO:Start to download trust,offset=0x4000,size=4194304
14:05:49 542	<LAYER 3-5> INFO:Start to download uboot,offset=0x2000,size=4194304
14:05:50 080	<LAYER 3-5> INFO:Start to download misc,offset=0x6000,size=49152
14:05:50 447	<LAYER 3-5> INFO:Start to download resource,offset=0x8000,size=755200
14:05:50 850	<LAYER 3-5> INFO:Start to download kernel,offset=0x10000,size=19357716
14:05:52 105	<LAYER 3-5> INFO:Start to download boot,offset=0x20000,size=1545880
14:05:52 546	<LAYER 3-5> INFO:Start to download recovery,offset=0x30000,size=8808684
14:05:53 316	<LAYER 3-5> INFO:Start to download system,offset=0x18a000,size=2684354560
14:06:45 759	<LAYER 3-5> INFO:Start to download vendor,offset=0x692000,size=536870912
14:06:59 832	<LAYER 3-5> INFO:Start to download oem,offset=0x794000,size=536870912
14:07:00 568	Layer<3-5>:下载固件成功
14:07:00 969	Layer<3-5>:重启设备开始
14:07:02 332	Layer<3-5>:重启设备成功
14:16:31 847	Info:RunExe->cmd=netstat -ano
14:16:32 958	Info:RunExe->cmd="V:\rd_rk3399_LPDDR4_8.1_SDK\RKTools\windows\AndroidTool\AndroidTool_Release_v2.54\bin\adb.exe" -s GM89A11C1L reboot loader
14:16:41 236	Layer<3-5>:测试设备开始
14:16:41 247	Layer<3-5>:测试设备成功
14:16:41 260	Layer<3-5>: Download kernel at 0x00012000...
14:16:43 005	Layer<3-5>: RunProc is ending, ret=1
14:17:34 716	Layer<3-5>:测试设备开始
14:17:34 733	Layer<3-5>:测试设备成功
14:17:34 750	Layer<3-5>: Download resource at 0x0000a000...
14:17:34 874	Layer<3-5>: Download kernel at 0x00012000...
14:17:36 617	Layer<3-5>: RunProc is ending, ret=1
14:22:31 846	Layer<3-5>:测试设备开始
14:22:31 857	Layer<3-5>:测试设备成功
14:22:31 867	Layer<3-5>: Download resource at 0x0000a000...
14:22:31 999	Layer<3-5>: Download kernel at 0x00012000...
14:22:33 815	Layer<3-5>: RunProc is ending, ret=1
14:23:00 471	Layer<3-5>:测试设备开始
14:23:00 487	Layer<3-5>:测试设备成功
14:23:00 494	<LAYER 3-5> ERROR:ReadCapability-->RKU_ReadCapability failed,err(-8)
14:23:00 503	Layer<3-5>:校验芯片开始
14:23:00 511	Layer<3-5>:校验芯片成功
14:23:00 521	Layer<3-5>:获取FlashInfo开始
14:23:00 527	<LAYER 3-5> INFO:FlashInfo: 00 00 E9 00 00 04 04 00 28 00 01
14:23:00 534	<LAYER 3-5> INFO:GetFlashInfo-->Emmc storage.
14:23:00 544	Layer<3-5>:获取FlashInfo成功
14:23:00 554	Layer<3-5>:准备IDB开始
14:23:00 560	<LAYER 3-5> INFO:CS(1)		(7456MB)		(SAMSUNG)
14:23:00 574	Layer<3-5>:准备IDB成功
14:23:00 582	Layer<3-5>:下载IDB开始
14:23:00 782	Layer<3-5>:下载IDB成功
14:23:00 792	Layer<3-5>:重启设备开始
14:23:01 807	Layer<3-5>:重启设备成功
14:23:01 814	Layer<3-5>:等待Loader开始
14:23:02 288	Layer<3-5>:等待Loader成功
14:23:02 292	Layer<3-5>:测试设备开始
14:23:02 299	Layer<3-5>:测试设备成功
14:23:02 304	Layer<3-5>:下载固件开始
14:23:02 309	<LAYER 3-5> INFO:FlashInfo: 00 00 E9 00 00 04 04 00 28 00 01
14:23:02 315	<LAYER 3-5> INFO:GetFlashInfo-->Emmc storage.
14:23:02 319	<LAYER 3-5> INFO:Start download image,total=3797008600,band=64,DirectLBA=0,First4Access=0,Gpt=0
14:23:02 353	<LAYER 3-5> INFO:Start to download trust,offset=0x4000,size=4194304
14:23:02 545	<LAYER 3-5> INFO:Start to download uboot,offset=0x2000,size=4194304
14:23:02 744	<LAYER 3-5> INFO:Start to download misc,offset=0x6000,size=49152
14:23:02 754	<LAYER 3-5> INFO:Start to download resource,offset=0x8000,size=755200
14:23:02 794	<LAYER 3-5> INFO:Start to download kernel,offset=0x10000,size=19357716
14:23:03 788	<LAYER 3-5> INFO:Start to download boot,offset=0x20000,size=1545880
14:23:03 864	<LAYER 3-5> INFO:Start to download recovery,offset=0x30000,size=8808684
14:23:04 316	<LAYER 3-5> INFO:Start to download system,offset=0x18a000,size=2684354560
14:23:58 325	<LAYER 3-5> INFO:Start to download vendor,offset=0x692000,size=536870912
14:24:13 226	<LAYER 3-5> INFO:Start to download oem,offset=0x794000,size=536870912
14:24:13 536	Layer<3-5>:下载固件成功
14:24:13 542	Layer<3-5>:重启设备开始
14:24:14 558	Layer<3-5>:重启设备成功
14:25:39 295	Info:RunExe->cmd=netstat -ano
14:25:40 338	ERROR:GetAdbSerialno->AdbCreateInterfaceByName failed,err=5,dev=\\?\USB#VID_2207&PID_0006#5&3B0D2CFF&0&5#{f72fe0d4-cbcb-407d-8814-9ed673d0dd6b}!
14:25:40 346	ERROR:AdbToRockusb->GetAdbSerialno failed!
14:25:40 355	Info:RunExe->cmd="V:\rd_rk3399_LPDDR4_8.1_SDK\RKTools\windows\AndroidTool\AndroidTool_Release_v2.54\bin\adb.exe" reboot loader
14:25:49 444	Layer<3-5>:测试设备开始
14:25:49 451	Layer<3-5>:测试设备成功
14:25:49 461	Layer<3-5>: Download parameter...
14:25:49 495	Layer<3-5>: Download resource at 0x00008000...
14:25:49 617	Layer<3-5>: Download kernel at 0x00010000...
14:25:51 427	Layer<3-5>: RunProc is ending, ret=1
14:31:11 248	Info:RunExe->cmd=netstat -ano
14:31:12 291	ERROR:GetAdbSerialno->AdbCreateInterfaceByName failed,err=5,dev=\\?\USB#VID_2207&PID_0006#5&3B0D2CFF&0&5#{f72fe0d4-cbcb-407d-8814-9ed673d0dd6b}!
14:31:12 297	ERROR:AdbToRockusb->GetAdbSerialno failed!
14:31:12 301	Info:RunExe->cmd="V:\rd_rk3399_LPDDR4_8.1_SDK\RKTools\windows\AndroidTool\AndroidTool_Release_v2.54\bin\adb.exe" reboot loader
14:31:25 085	Layer<3-5>:测试设备开始
14:31:25 100	Layer<3-5>:测试设备成功
14:31:25 117	Layer<3-5>: Download parameter...
14:31:25 164	Layer<3-5>: Download resource at 0x00008000...
14:31:25 284	Layer<3-5>: Download kernel at 0x00010000...
14:31:27 188	Layer<3-5>: RunProc is ending, ret=1
14:33:35 394	Info:RunExe->cmd=netstat -ano
14:33:36 417	ERROR:GetAdbSerialno->AdbCreateInterfaceByName failed,err=5,dev=\\?\USB#VID_2207&PID_0006#5&3B0D2CFF&0&5#{f72fe0d4-cbcb-407d-8814-9ed673d0dd6b}!
14:33:36 425	ERROR:AdbToRockusb->GetAdbSerialno failed!
14:33:36 432	Info:RunExe->cmd="V:\rd_rk3399_LPDDR4_8.1_SDK\RKTools\windows\AndroidTool\AndroidTool_Release_v2.54\bin\adb.exe" reboot loader
14:33:47 174	Layer<3-5>:测试设备开始
14:33:47 186	Layer<3-5>:测试设备成功
14:33:47 199	Layer<3-5>: Download parameter...
14:33:47 242	Layer<3-5>: Download resource at 0x00008000...
14:33:47 368	Layer<3-5>: Download kernel at 0x00010000...
14:33:49 276	Layer<3-5>: RunProc is ending, ret=1
14:37:14 126	Layer<3-5>:测试设备开始
14:37:14 137	Layer<3-5>:测试设备成功
14:37:14 150	Layer<3-5>: Download parameter...
14:37:14 206	Layer<3-5>: Download resource at 0x00008000...
14:37:14 327	Layer<3-5>: Download kernel at 0x00010000...
14:37:16 352	Layer<3-5>: RunProc is ending, ret=1
14:40:35 262	Info:RunExe->cmd=netstat -ano
14:40:36 289	ERROR:GetAdbSerialno->AdbCreateInterfaceByName failed,err=5,dev=\\?\USB#VID_2207&PID_0006#5&3B0D2CFF&0&5#{f72fe0d4-cbcb-407d-8814-9ed673d0dd6b}!
14:40:36 296	ERROR:AdbToRockusb->GetAdbSerialno failed!
14:40:36 303	Info:RunExe->cmd="V:\rd_rk3399_LPDDR4_8.1_SDK\RKTools\windows\AndroidTool\AndroidTool_Release_v2.54\bin\adb.exe" reboot loader
14:40:45 072	Layer<3-5>:测试设备开始
14:40:45 082	Layer<3-5>:测试设备成功
14:40:45 095	Layer<3-5>: Download parameter...
14:40:45 147	Layer<3-5>: Download resource at 0x00008000...
14:40:45 283	Layer<3-5>: Download kernel at 0x00010000...
14:40:47 168	Layer<3-5>: RunProc is ending, ret=1
14:42:30 440	Info:RunExe->cmd=netstat -ano
14:42:31 461	ERROR:GetAdbSerialno->AdbCreateInterfaceByName failed,err=5,dev=\\?\USB#VID_2207&PID_0006#5&3B0D2CFF&0&5#{f72fe0d4-cbcb-407d-8814-9ed673d0dd6b}!
14:42:31 469	ERROR:AdbToRockusb->GetAdbSerialno failed!
14:42:31 473	Info:RunExe->cmd="V:\rd_rk3399_LPDDR4_8.1_SDK\RKTools\windows\AndroidTool\AndroidTool_Release_v2.54\bin\adb.exe" reboot loader
14:42:40 119	Layer<3-5>:测试设备开始
14:42:40 125	Layer<3-5>:测试设备成功
14:42:40 133	Layer<3-5>: Download parameter...
14:42:40 157	Layer<3-5>: Download resource at 0x00008000...
14:42:40 280	Layer<3-5>: Download kernel at 0x00010000...
14:42:42 203	Layer<3-5>: RunProc is ending, ret=1
14:45:18 314	Info:RunExe->cmd=netstat -ano
14:45:19 441	ERROR:GetAdbSerialno->AdbCreateInterfaceByName failed,err=5,dev=\\?\USB#VID_2207&PID_0006#5&3B0D2CFF&0&5#{f72fe0d4-cbcb-407d-8814-9ed673d0dd6b}!
14:45:19 449	ERROR:AdbToRockusb->GetAdbSerialno failed!
14:45:19 454	Info:RunExe->cmd="V:\rd_rk3399_LPDDR4_8.1_SDK\RKTools\windows\AndroidTool\AndroidTool_Release_v2.54\bin\adb.exe" reboot loader
14:45:28 199	Layer<3-5>:测试设备开始
14:45:28 205	Layer<3-5>:测试设备成功
14:45:28 213	Layer<3-5>: Download parameter...
14:45:28 239	Layer<3-5>: Download resource at 0x00008000...
14:45:28 629	Layer<3-5>: Download kernel at 0x00010000...
14:45:30 547	Layer<3-5>: RunProc is ending, ret=1
