FIRMWARE_VER:8.1
MACHINE_MODEL:RK3399
MACHINE_ID:007
MANUFACTURER: RK3399
MAGIC: 0x5041524B
ATAG: 0x00200800
MACHINE: 3399
CHECK_MASK: 0x80
PWR_HLD: 0,0,A,0,1
CMDLINE: console=ttyFIQ0 androidboot.baseband=N/A androidboot.veritymode=enforcing androidboot.selinux=permissive androidboot.hardware=rk30board androidboot.console=ttyFIQ0 init=/init initrd=0x62000000,0x00800000 mtdparts=rk29xxnand:0x00002000@0x00002000(uboot),0x00002000@0x00004000(trust),0x00002000@0x00006000(misc),0x00008000@0x00008000(resource),0x00010000@0x00010000(kernel),0x00010000@0x00020000(boot),0x00020000@0x00030000(recovery),0x00038000@0x00050000(backup),0x00002000@0x00088000(security),0x00100000@0x0008a000(cache),0x00500000@0x0018a000(system),0x00008000@0x0068a000(metadata),0x00100000@0x00692000(vendor),0x00100000@0x00794000(oem),0x00000400@0x00894000(frp),-@0x00894400(userdata)
